---
source: spade-tests/src/typeinference.rs
expression: "std::str::from_utf8(buffer.as_slice()).expect(\"error contains invalid utf-8\")"
---
error: Pattern type mismatch
  ┌─ testinput:2:9
  │
2 │     let (x, y): bool = true;
  │         ^^^^^^  ---- because this has type bool
  │         │        
  │         expected bool
  │
  = Expected: bool
  =      Got: (_, _)


