---
source: spade-tests/src/integration.rs
expression: "std::str::from_utf8(buffer.as_slice()).expect(\"error contains invalid utf-8\")"
---
error: Generic types can not be ports
  ┌─ testinput:4:5
  │
4 │     inst use_both(p, p)
  │     ^^^^^^^^^^^^^^^^^^^ Parameter B is &bool which is a port type


